<?xml version="1.0" encoding="UTF-8" standalone="no"?>
<svg
   width="1000"
   height="1000"
   viewBox="0 0 1000 1000"
   id="svg2"
   version="1.1"
   inkscape:version="1.2.2 (b0a8486541, 2022-12-01)"
   sodipodi:docname="sequence-diagram.svg"
   inkscape:export-filename="18-sequence-diagram.png"
   inkscape:export-xdpi="96"
   inkscape:export-ydpi="96"
   xmlns:inkscape="http://www.inkscape.org/namespaces/inkscape"
   xmlns:sodipodi="http://sodipodi.sourceforge.net/DTD/sodipodi-0.dtd"
   xmlns="http://www.w3.org/2000/svg"
   xmlns:svg="http://www.w3.org/2000/svg"
   xmlns:rdf="http://www.w3.org/1999/02/22-rdf-syntax-ns#"
   xmlns:cc="http://creativecommons.org/ns#"
   xmlns:dc="http://purl.org/dc/elements/1.1/">
  <defs
     id="defs4">
    <filter
       style="color-interpolation-filters:sRGB"
       inkscape:label="Drop Shadow"
       id="filter2731"
       width="1.1139665"
       height="1.1632"
       x="-0.043016762"
       y="-0.0616">
      <feFlood
         flood-opacity="0.501961"
         flood-color="rgb(0,0,0)"
         result="flood"
         id="feFlood2721" />
      <feComposite
         in="flood"
         in2="SourceGraphic"
         operator="in"
         result="composite1"
         id="feComposite2723" />
      <feGaussianBlur
         in="composite1"
         stdDeviation="3"
         result="blur"
         id="feGaussianBlur2725" />
      <feOffset
         dx="5"
         dy="5"
         result="offset"
         id="feOffset2727" />
      <feComposite
         in="SourceGraphic"
         in2="offset"
         operator="over"
         result="composite2"
         id="feComposite2729" />
    </filter>
    <inkscape:path-effect
       effect="spiro"
       id="path-effect15547"
       is_visible="true"
       lpeversion="0" />
  </defs>
  <sodipodi:namedview
     id="base"
     pagecolor="#ffffff"
     bordercolor="#666666"
     borderopacity="1.0"
     inkscape:pageopacity="0.0"
     inkscape:pageshadow="2"
     inkscape:zoom="0.704"
     inkscape:cx="500"
     inkscape:cy="500"
     inkscape:document-units="px"
     inkscape:current-layer="layer6"
     showgrid="false"
     inkscape:window-width="1914"
     inkscape:window-height="990"
     inkscape:window-x="0"
     inkscape:window-y="24"
     inkscape:window-maximized="1"
     units="px"
     fit-margin-top="0"
     fit-margin-left="0"
     fit-margin-right="0"
     fit-margin-bottom="0"
     showguides="true"
     inkscape:guide-bbox="true"
     inkscape:document-rotation="0"
     inkscape:pagecheckerboard="true"
     inkscape:showpageshadow="2"
     inkscape:deskcolor="#d1d1d1" />
  <metadata
     id="metadata7">
    <rdf:RDF>
      <cc:Work
         rdf:about="">
        <dc:format>image/svg+xml</dc:format>
        <dc:type
           rdf:resource="http://purl.org/dc/dcmitype/StillImage" />
      </cc:Work>
    </rdf:RDF>
  </metadata>
  <g
     inkscape:groupmode="layer"
     id="layer3"
     inkscape:label="Background"
     transform="matrix(0.53333333,0,0,0.8,0,156.00001)"
     style="stroke-width:1.53094"
     sodipodi:insensitive="true">
    <rect
       style="opacity:1;fill:#ffffff;fill-opacity:1;fill-rule:evenodd;stroke:none;stroke-width:1.53094;stroke-linecap:butt;stroke-linejoin:round;stroke-miterlimit:4;stroke-dasharray:none;stroke-dashoffset:0;stroke-opacity:1"
       id="rect2384"
       width="1875"
       height="1250"
       x="0"
       y="-194.99994"
       inkscape:export-filename="11-class-diagram.png"
       inkscape:export-xdpi="96"
       inkscape:export-ydpi="96" />
  </g>
  <g
     inkscape:groupmode="layer"
     id="layer6"
     inkscape:label="Actor"
     style="display:inline"
     sodipodi:insensitive="true">
    <g
       id="g793"
       transform="translate(-10,-337.36206)">
      <rect
         style="display:inline;fill:#bbdefb;fill-opacity:1;fill-rule:evenodd;stroke:#000000;stroke-width:0.999999;stroke-linecap:butt;stroke-linejoin:round;stroke-miterlimit:4;stroke-dasharray:none;stroke-dashoffset:0;stroke-opacity:1"
         id="rect385"
         width="159"
         height="49"
         x="30.5"
         y="367.86206" />
      <text
         id="text389"
         y="401.01929"
         x="109.44336"
         style="font-style:normal;font-variant:normal;font-weight:normal;font-stretch:normal;font-size:20px;line-height:125%;font-family:Oswald;-inkscape-font-specification:'Oswald, Normal';font-variant-ligatures:normal;font-variant-caps:normal;font-variant-numeric:normal;font-feature-settings:normal;text-align:center;letter-spacing:0px;word-spacing:0px;writing-mode:lr-tb;text-anchor:middle;display:inline;fill:#000000;fill-opacity:1;stroke:none;stroke-width:1px;stroke-linecap:butt;stroke-linejoin:miter;stroke-opacity:1"
         xml:space="preserve"><tspan
           sodipodi:role="line"
           x="109.44336"
           y="401.01929"
           id="tspan564">User</tspan></text>
    </g>
    <g
       id="g2921"
       transform="translate(-110,-337.36206)">
      <rect
         style="display:inline;fill:#bbdefb;fill-opacity:1;fill-rule:evenodd;stroke:#000000;stroke-width:0.999999;stroke-linecap:butt;stroke-linejoin:round;stroke-miterlimit:4;stroke-dasharray:none;stroke-dashoffset:0;stroke-opacity:1"
         id="rect795"
         width="159"
         height="49"
         x="330.5"
         y="367.86206" />
      <text
         id="text799"
         y="401.01929"
         x="390.40039"
         style="font-style:normal;font-variant:normal;font-weight:normal;font-stretch:normal;font-size:20px;line-height:125%;font-family:Oswald;-inkscape-font-specification:'Oswald, Normal';font-variant-ligatures:normal;font-variant-caps:normal;font-variant-numeric:normal;font-feature-settings:normal;text-align:start;letter-spacing:0px;word-spacing:0px;writing-mode:lr-tb;text-anchor:start;display:inline;fill:#000000;fill-opacity:1;stroke:none;stroke-width:1px;stroke-linecap:butt;stroke-linejoin:miter;stroke-opacity:1"
         xml:space="preserve"><tspan
           sodipodi:role="line"
           x="390.40039"
           y="401.01929"
           id="tspan797">Excel</tspan></text>
    </g>
    <g
       id="g2926"
       transform="translate(-210,-337.36206)">
      <rect
         style="display:inline;fill:#bbdefb;fill-opacity:1;fill-rule:evenodd;stroke:#000000;stroke-width:0.999999;stroke-linecap:butt;stroke-linejoin:round;stroke-miterlimit:4;stroke-dasharray:none;stroke-dashoffset:0;stroke-opacity:1"
         id="rect803"
         width="159"
         height="49"
         x="630.5"
         y="367.86206" />
      <text
         id="text807"
         y="401.01929"
         x="685.95703"
         style="font-style:normal;font-variant:normal;font-weight:normal;font-stretch:normal;font-size:20px;line-height:125%;font-family:Oswald;-inkscape-font-specification:'Oswald, Normal';font-variant-ligatures:normal;font-variant-caps:normal;font-variant-numeric:normal;font-feature-settings:normal;text-align:start;letter-spacing:0px;word-spacing:0px;writing-mode:lr-tb;text-anchor:start;display:inline;fill:#000000;fill-opacity:1;stroke:none;stroke-width:1px;stroke-linecap:butt;stroke-linejoin:miter;stroke-opacity:1"
         xml:space="preserve"><tspan
           sodipodi:role="line"
           x="685.95703"
           y="401.01929"
           id="tspan805">Script</tspan></text>
    </g>
    <g
       id="g2931"
       transform="translate(-310,-337.36206)">
      <rect
         style="display:inline;fill:#bbdefb;fill-opacity:1;fill-rule:evenodd;stroke:#000000;stroke-width:0.999999;stroke-linecap:butt;stroke-linejoin:round;stroke-miterlimit:4;stroke-dasharray:none;stroke-dashoffset:0;stroke-opacity:1"
         id="rect811"
         width="159"
         height="49"
         x="930.5"
         y="367.86206" />
      <text
         id="text815"
         y="401.01929"
         x="972.4707"
         style="font-style:normal;font-variant:normal;font-weight:normal;font-stretch:normal;font-size:20px;line-height:125%;font-family:Oswald;-inkscape-font-specification:'Oswald, Normal';font-variant-ligatures:normal;font-variant-caps:normal;font-variant-numeric:normal;font-feature-settings:normal;text-align:start;letter-spacing:0px;word-spacing:0px;writing-mode:lr-tb;text-anchor:start;display:inline;fill:#000000;fill-opacity:1;stroke:none;stroke-width:1px;stroke-linecap:butt;stroke-linejoin:miter;stroke-opacity:1"
         xml:space="preserve"><tspan
           sodipodi:role="line"
           x="972.4707"
           y="401.01929"
           id="tspan813">Web Page</tspan></text>
    </g>
    <g
       id="g825"
       transform="translate(790,-337.36206)">
      <rect
         style="display:inline;fill:#bbdefb;fill-opacity:1;fill-rule:evenodd;stroke:#000000;stroke-width:0.999999;stroke-linecap:butt;stroke-linejoin:round;stroke-miterlimit:4;stroke-dasharray:none;stroke-dashoffset:0;stroke-opacity:1"
         id="rect819"
         width="159"
         height="49"
         x="30.5"
         y="367.86206" />
      <text
         id="text823"
         y="401.01929"
         x="109.47266"
         style="font-style:normal;font-variant:normal;font-weight:normal;font-stretch:normal;font-size:20px;line-height:125%;font-family:Oswald;-inkscape-font-specification:'Oswald, Normal';font-variant-ligatures:normal;font-variant-caps:normal;font-variant-numeric:normal;font-feature-settings:normal;text-align:center;letter-spacing:0px;word-spacing:0px;writing-mode:lr-tb;text-anchor:middle;display:inline;fill:#000000;fill-opacity:1;stroke:none;stroke-width:1px;stroke-linecap:butt;stroke-linejoin:miter;stroke-opacity:1"
         xml:space="preserve"><tspan
           sodipodi:role="line"
           x="109.47266"
           y="401.01929"
           id="tspan821">Display</tspan></text>
    </g>
    <path
       style="fill:none;fill-rule:evenodd;stroke:#000000;stroke-width:1px;stroke-linecap:butt;stroke-linejoin:miter;stroke-dasharray:8, 4;stroke-dashoffset:0;stroke-opacity:1"
       d="M 300.00002,979.99997 V 79.999962"
       id="path2901"
       inkscape:connector-curvature="0" />
    <path
       style="fill:none;fill-rule:evenodd;stroke:#000000;stroke-width:1px;stroke-linecap:butt;stroke-linejoin:miter;stroke-dasharray:8, 4;stroke-dashoffset:0;stroke-opacity:1"
       d="M 500.00003,979.99997 V 79.999962"
       id="path2903"
       inkscape:connector-curvature="0" />
    <path
       style="fill:none;fill-rule:evenodd;stroke:#000000;stroke-width:1px;stroke-linecap:butt;stroke-linejoin:miter;stroke-dasharray:8, 4;stroke-dashoffset:0;stroke-opacity:1"
       d="M 700,979.99997 V 79.999962"
       id="path2905"
       inkscape:connector-curvature="0" />
    <path
       style="fill:none;fill-rule:evenodd;stroke:#000000;stroke-width:1px;stroke-linecap:butt;stroke-linejoin:miter;stroke-dasharray:8, 4;stroke-dashoffset:0;stroke-opacity:1"
       d="M 900.0001,979.99997 V 79.999962"
       id="path2907"
       inkscape:connector-curvature="0" />
    <path
       style="fill:none;fill-rule:evenodd;stroke:#000000;stroke-width:1px;stroke-linecap:butt;stroke-linejoin:miter;stroke-dasharray:8, 4;stroke-dashoffset:0;stroke-opacity:1"
       d="M 100.00001,979.99997 V 79.999962"
       id="path15537"
       inkscape:connector-curvature="0" />
  </g>
  <g
     inkscape:label="Diagram"
     inkscape:groupmode="layer"
     id="layer1"
     transform="translate(10,-337.36206)"
     sodipodi:insensitive="true">
    <rect
       style="fill:none;stroke:#000000;stroke-width:0.999996;stroke-dasharray:none"
       id="rect1558"
       width="839"
       height="299"
       x="70.5"
       y="647.86206" />
    <text
       id="text4519"
       y="1128.871"
       x="554.83234"
       style="font-style:normal;font-weight:normal;font-size:40px;line-height:125%;font-family:Sans;letter-spacing:0px;word-spacing:0px;fill:#000000;fill-opacity:1;stroke:none;stroke-width:1px;stroke-linecap:butt;stroke-linejoin:miter;stroke-opacity:1;filter:url(#filter2731)"
       xml:space="preserve" />
    <text
       xml:space="preserve"
       style="font-style:normal;font-weight:normal;font-size:40px;line-height:25px;font-family:Sans;letter-spacing:0px;word-spacing:0px;fill:#000000;fill-opacity:1;stroke:none;stroke-width:1px;stroke-linecap:butt;stroke-linejoin:miter;stroke-opacity:1;filter:url(#filter2731)"
       x="371.80853"
       y="911.33624"
       id="text3702" />
    <text
       xml:space="preserve"
       style="font-style:normal;font-weight:normal;font-size:40px;line-height:25px;font-family:Sans;letter-spacing:0px;word-spacing:0px;fill:#000000;fill-opacity:1;stroke:none;stroke-width:1px;stroke-linecap:butt;stroke-linejoin:miter;stroke-opacity:1;filter:url(#filter2731)"
       x="365.89001"
       y="753.78003"
       id="text7069" />
    <text
       xml:space="preserve"
       style="font-size:85.3333px;line-height:1.25;font-family:'Source Sans Pro';-inkscape-font-specification:'Source Sans Pro';text-align:center;text-anchor:middle;filter:url(#filter2731)"
       x="111.46334"
       y="424.31595"
       id="text3351"><tspan
         sodipodi:role="line"
         id="tspan3349"
         x="111.46334"
         y="424.31595" /></text>
    <g
       id="g5135"
       transform="matrix(0.05586592,0,0,7.1428571,683.8547,-2040.2241)"
       style="fill:#64b5f6;stroke:none;stroke-width:1.58303">
      <rect
         style="display:inline;fill:#64b5f6;fill-opacity:1;fill-rule:evenodd;stroke:none;stroke-width:1.58303;stroke-linecap:butt;stroke-linejoin:round;stroke-miterlimit:4;stroke-dasharray:none;stroke-dashoffset:0;stroke-opacity:1"
         id="rect5129"
         width="179"
         height="49"
         x="20.5"
         y="367.86206" />
    </g>
    <g
       id="g5684"
       transform="matrix(0.05586592,0,0,3.0612245,483.8547,-388.74633)"
       style="fill:#64b5f6;stroke:none;stroke-width:2.41814">
      <rect
         style="display:inline;fill:#64b5f6;fill-opacity:1;fill-rule:evenodd;stroke:none;stroke-width:2.41814;stroke-linecap:butt;stroke-linejoin:round;stroke-miterlimit:4;stroke-dasharray:none;stroke-dashoffset:0;stroke-opacity:1"
         id="rect5682"
         width="179"
         height="49"
         x="20.5"
         y="367.86206" />
    </g>
    <g
       id="g5726"
       transform="matrix(0.05586592,0,0,1.0204082,283.85475,411.99259)"
       style="fill:#64b5f6;stroke:none;stroke-width:4.18835">
      <rect
         style="display:inline;fill:#64b5f6;fill-opacity:1;fill-rule:evenodd;stroke:none;stroke-width:4.18835;stroke-linecap:butt;stroke-linejoin:round;stroke-miterlimit:4;stroke-dasharray:none;stroke-dashoffset:0;stroke-opacity:1"
         id="rect5724"
         width="179"
         height="49"
         x="20.5"
         y="367.86206" />
    </g>
    <g
       id="g6042"
       transform="matrix(0.05586592,0,0,3.4693878,883.8547,-718.89407)"
       style="fill:#64b5f6;stroke:none;stroke-width:2.27144">
      <rect
         style="display:inline;fill:#64b5f6;fill-opacity:1;fill-rule:evenodd;stroke:none;stroke-width:2.27144;stroke-linecap:butt;stroke-linejoin:round;stroke-miterlimit:4;stroke-dasharray:none;stroke-dashoffset:0;stroke-opacity:1"
         id="rect6040"
         width="179"
         height="49"
         x="20.5"
         y="367.86206" />
    </g>
    <g
       id="g6362"
       transform="matrix(0.05586592,0,0,3.0612245,283.85475,-138.74629)"
       style="fill:#64b5f6;stroke:none;stroke-width:2.41814">
      <rect
         style="display:inline;fill:#64b5f6;fill-opacity:1;fill-rule:evenodd;stroke:none;stroke-width:2.41814;stroke-linecap:butt;stroke-linejoin:round;stroke-miterlimit:4;stroke-dasharray:none;stroke-dashoffset:0;stroke-opacity:1"
         id="rect6360"
         width="179"
         height="49"
         x="20.5"
         y="367.86206" />
    </g>
    <g
       id="g6384"
       transform="matrix(0.05586592,0,0,1.0204082,83.85474,711.9926)"
       style="fill:#64b5f6;stroke:none;stroke-width:4.18834">
      <rect
         style="display:inline;fill:#64b5f6;fill-opacity:1;fill-rule:evenodd;stroke:none;stroke-width:4.18834;stroke-linecap:butt;stroke-linejoin:round;stroke-miterlimit:4;stroke-dasharray:none;stroke-dashoffset:0;stroke-opacity:1"
         id="rect6382"
         width="179"
         height="49"
         x="20.5"
         y="367.86206" />
    </g>
    <g
       id="g6436"
       transform="matrix(0.05586592,0,0,1.0204082,283.85475,761.9926)"
       style="fill:#64b5f6;stroke:none;stroke-width:4.18835">
      <rect
         style="display:inline;fill:#64b5f6;fill-opacity:1;fill-rule:evenodd;stroke:none;stroke-width:4.18835;stroke-linecap:butt;stroke-linejoin:round;stroke-miterlimit:4;stroke-dasharray:none;stroke-dashoffset:0;stroke-opacity:1"
         id="rect6434"
         width="179"
         height="49"
         x="20.5"
         y="367.86206" />
    </g>
    <g
       id="g6440"
       transform="matrix(0.05586592,0,0,2.0408163,483.8547,386.62316)"
       style="fill:#64b5f6;stroke:none;stroke-width:2.9616">
      <rect
         style="display:inline;fill:#64b5f6;fill-opacity:1;fill-rule:evenodd;stroke:none;stroke-width:2.9616;stroke-linecap:butt;stroke-linejoin:round;stroke-miterlimit:4;stroke-dasharray:none;stroke-dashoffset:0;stroke-opacity:1"
         id="rect6438"
         width="179"
         height="49"
         x="20.5"
         y="367.86206" />
    </g>
    <g
       id="g6444"
       transform="matrix(0.05586592,0,0,2.0408163,683.8547,436.62316)"
       style="fill:#64b5f6;stroke:none;stroke-width:2.9616">
      <rect
         style="display:inline;fill:#64b5f6;fill-opacity:1;fill-rule:evenodd;stroke:none;stroke-width:2.9616;stroke-linecap:butt;stroke-linejoin:round;stroke-miterlimit:4;stroke-dasharray:none;stroke-dashoffset:0;stroke-opacity:1"
         id="rect6442"
         width="179"
         height="49"
         x="20.5"
         y="367.86206" />
    </g>
    <g
       id="g6795"
       transform="matrix(0.05586592,0,0,1.0204082,883.8547,861.9926)"
       style="fill:#64b5f6;stroke:none;stroke-width:4.18834">
      <rect
         style="display:inline;fill:#64b5f6;fill-opacity:1;fill-rule:evenodd;stroke:none;stroke-width:4.18834;stroke-linecap:butt;stroke-linejoin:round;stroke-miterlimit:4;stroke-dasharray:none;stroke-dashoffset:0;stroke-opacity:1"
         id="rect6793"
         width="179"
         height="49"
         x="20.5"
         y="367.86206" />
    </g>
    <g
       id="g6799"
       transform="matrix(0.05586592,0,0,1.0204082,883.8547,511.9926)"
       style="fill:#64b5f6;stroke:none;stroke-width:4.18834">
      <rect
         style="display:inline;fill:#64b5f6;fill-opacity:1;fill-rule:evenodd;stroke:none;stroke-width:4.18834;stroke-linecap:butt;stroke-linejoin:round;stroke-miterlimit:4;stroke-dasharray:none;stroke-dashoffset:0;stroke-opacity:1"
         id="rect6797"
         width="179"
         height="49"
         x="20.5"
         y="367.86206" />
    </g>
    <rect
       style="fill:none;stroke:#000000;stroke-width:1;stroke-dasharray:none"
       id="rect1593"
       width="839"
       height="319"
       x="70.5"
       y="977.862" />
    <g
       id="g1718"
       transform="translate(-50)">
      <path
         id="rect1595"
         style="fill:#ffffff;stroke:#000000;stroke-width:0.999999"
         d="m 120.5,647.86206 h 99 v 19 l -5,5 -5,5 h -89 z"
         sodipodi:nodetypes="ccccccc" />
      <text
         xml:space="preserve"
         style="font-size:24px;line-height:1.25;font-family:'Source Sans Pro';-inkscape-font-specification:'Source Sans Pro';text-align:center;text-anchor:middle"
         x="169.496"
         y="667.77405"
         id="text1599"><tspan
           sodipodi:role="line"
           id="tspan1597"
           x="169.496"
           y="667.77405">Loop</tspan></text>
    </g>
    <g
       id="g1723"
       transform="translate(-50)">
      <path
         id="path1713"
         style="fill:#ffffff;stroke:#000000;stroke-width:0.999999"
         d="m 120.5,977.86206 h 99 v 19 l -5,5.00004 -5,5 h -89 z"
         sodipodi:nodetypes="ccccccc" />
      <text
         xml:space="preserve"
         style="font-size:24px;line-height:1.25;font-family:'Source Sans Pro';-inkscape-font-specification:'Source Sans Pro';text-align:center;text-anchor:middle"
         x="169.496"
         y="997.77405"
         id="text1614"><tspan
           sodipodi:role="line"
           id="tspan1612"
           x="169.496"
           y="997.77405">Loop</tspan></text>
    </g>
  </g>
  <g
     inkscape:groupmode="layer"
     id="layer2"
     inkscape:label="Connector"
     style="display:inline"
     transform="translate(0,195)"
     sodipodi:insensitive="true">
    <g
       id="g5708"
       transform="matrix(1.0084034,0,0,1.0344828,748.7479,-325.54698)"
       style="stroke-width:0.979087">
      <rect
         style="display:inline;fill:none;fill-opacity:1;fill-rule:evenodd;stroke:none;stroke-width:0.979074;stroke-linecap:butt;stroke-linejoin:round;stroke-miterlimit:4;stroke-dasharray:none;stroke-dashoffset:0;stroke-opacity:1"
         id="rect5702"
         width="158.66666"
         height="29"
         x="-28.508337"
         y="367.86206" />
      <text
         id="text5706"
         y="387.64243"
         x="50.501896"
         style="font-style:normal;font-variant:normal;font-weight:normal;font-stretch:normal;font-size:19.5817px;line-height:125%;font-family:'Source Sans Pro';-inkscape-font-specification:'Source Sans Pro';font-variant-ligatures:normal;font-variant-caps:normal;font-variant-numeric:normal;font-feature-settings:normal;text-align:center;letter-spacing:0px;word-spacing:0px;writing-mode:lr-tb;text-anchor:middle;display:inline;fill:#000000;fill-opacity:1;stroke:none;stroke-width:0.979087px;stroke-linecap:butt;stroke-linejoin:miter;stroke-opacity:1"
         xml:space="preserve"><tspan
           sodipodi:role="line"
           x="50.501896"
           y="387.64243"
           id="tspan5704"
           style="font-size:19.5817px;text-align:center;text-anchor:middle;stroke-width:0.979087px">page open</tspan></text>
    </g>
    <g
       transform="matrix(0,-1,-1,0,1010,-606.00004)"
       id="g5714"
       style="display:inline;stroke-width:1.25">
      <path
         inkscape:connector-curvature="0"
         id="path5710"
         d="m -697.49999,294.00004 v -179"
         style="fill:none;fill-rule:evenodd;stroke:#000000;stroke-width:0.999994px;stroke-linecap:butt;stroke-linejoin:miter;stroke-opacity:1" />
      <path
         sodipodi:nodetypes="ccccc"
         inkscape:connector-curvature="0"
         id="path5712"
         d="m -697.5,305 6.5,-15 h -6.5 -6.5 z"
         style="fill:#000000;fill-opacity:1;fill-rule:evenodd;stroke:none;stroke-width:1px;stroke-linecap:butt;stroke-linejoin:miter;stroke-opacity:1" />
    </g>
    <rect
       style="display:inline;fill:none;fill-opacity:1;fill-rule:evenodd;stroke:none;stroke-width:0.999988;stroke-linecap:butt;stroke-linejoin:round;stroke-miterlimit:4;stroke-dasharray:none;stroke-dashoffset:0;stroke-opacity:1"
       id="rect993"
       width="160"
       height="30.000002"
       x="110.00003"
       y="437.36209"
       transform="translate(10,-532.36206)" />
    <text
       id="text997"
       y="452.01682"
       x="189.89185"
       style="font-style:normal;font-variant:normal;font-weight:normal;font-stretch:normal;font-size:20px;line-height:125%;font-family:'Source Sans Pro';-inkscape-font-specification:'Source Sans Pro';font-variant-ligatures:normal;font-variant-caps:normal;font-variant-numeric:normal;font-feature-settings:normal;text-align:center;letter-spacing:0px;word-spacing:0px;writing-mode:lr-tb;text-anchor:middle;display:inline;fill:#000000;fill-opacity:1;stroke:none;stroke-width:1px;stroke-linecap:butt;stroke-linejoin:miter;stroke-opacity:1"
       xml:space="preserve"
       transform="matrix(0.98731449,0,0,1.0128485,10,-532.36206)"><tspan
         sodipodi:role="line"
         x="189.89185"
         y="452.01682"
         id="tspan995"
         style="font-size:20px;text-align:center;text-anchor:middle;stroke-width:1px">open excel sheet</tspan></text>
    <rect
       style="display:inline;fill:none;fill-opacity:1;fill-rule:evenodd;stroke:none;stroke-width:0.999988;stroke-linecap:butt;stroke-linejoin:round;stroke-miterlimit:4;stroke-dasharray:none;stroke-dashoffset:0;stroke-opacity:1"
       id="rect1114"
       width="360"
       height="30.000002"
       x="110.00003"
       y="487.36212"
       transform="translate(10,-532.36206)" />
    <text
       id="text1118"
       y="501.38254"
       x="199.35187"
       style="font-style:normal;font-variant:normal;font-weight:normal;font-stretch:normal;font-size:20px;line-height:125%;font-family:'Source Sans Pro';-inkscape-font-specification:'Source Sans Pro';font-variant-ligatures:normal;font-variant-caps:normal;font-variant-numeric:normal;font-feature-settings:normal;text-align:center;letter-spacing:0px;word-spacing:0px;writing-mode:lr-tb;text-anchor:middle;display:inline;fill:#000000;fill-opacity:1;stroke:none;stroke-width:1px;stroke-linecap:butt;stroke-linejoin:miter;stroke-opacity:1"
       xml:space="preserve"
       transform="matrix(0.98731449,0,0,1.0128485,10,-532.36206)"><tspan
         sodipodi:role="line"
         x="199.35187"
         y="501.38254"
         id="tspan1116"
         style="font-size:20px;text-align:center;text-anchor:middle;stroke-width:1px">open python script</tspan></text>
    <rect
       style="display:inline;fill:none;fill-opacity:1;fill-rule:evenodd;stroke:none;stroke-width:0.999988;stroke-linecap:butt;stroke-linejoin:round;stroke-miterlimit:4;stroke-dasharray:none;stroke-dashoffset:0;stroke-opacity:1"
       id="rect1130"
       width="560"
       height="30.000002"
       x="110.00003"
       y="537.36212"
       transform="translate(10,-532.36206)" />
    <text
       id="text1134"
       y="550.74829"
       x="229.97189"
       style="font-style:normal;font-variant:normal;font-weight:normal;font-stretch:normal;font-size:20px;line-height:125%;font-family:'Source Sans Pro';-inkscape-font-specification:'Source Sans Pro';font-variant-ligatures:normal;font-variant-caps:normal;font-variant-numeric:normal;font-feature-settings:normal;text-align:center;letter-spacing:0px;word-spacing:0px;writing-mode:lr-tb;text-anchor:middle;display:inline;fill:#000000;fill-opacity:1;stroke:none;stroke-width:1px;stroke-linecap:butt;stroke-linejoin:miter;stroke-opacity:1"
       xml:space="preserve"
       transform="matrix(0.98731449,0,0,1.0128485,10,-532.36206)"><tspan
         sodipodi:role="line"
         x="229.97189"
         y="550.74829"
         id="tspan1132"
         style="font-size:20px;text-align:center;text-anchor:middle;stroke-width:1px">open page in web browser</tspan></text>
    <g
       transform="rotate(-90,-333,-423)"
       id="g1006"
       style="display:inline;stroke-width:1.25">
      <path
         inkscape:connector-curvature="0"
         id="path1002"
         d="m -697.49999,194.00004 v -179"
         style="fill:none;fill-rule:evenodd;stroke:#000000;stroke-width:0.999994px;stroke-linecap:butt;stroke-linejoin:miter;stroke-opacity:1" />
      <path
         sodipodi:nodetypes="ccccc"
         inkscape:connector-curvature="0"
         id="path1004"
         d="m -697.5,205 6.5,-15 h -6.5 -6.5 z"
         style="fill:#000000;fill-opacity:1;fill-rule:evenodd;stroke:none;stroke-width:1px;stroke-linecap:butt;stroke-linejoin:miter;stroke-opacity:1" />
    </g>
    <g
       id="g1010"
       transform="matrix(0.05586592,0,0,1.0204082,93.85474,-470.36946)"
       style="fill:#64b5f6;stroke:none;stroke-width:4.18834">
      <rect
         style="display:inline;fill:#64b5f6;fill-opacity:1;fill-rule:evenodd;stroke:none;stroke-width:4.18834;stroke-linecap:butt;stroke-linejoin:round;stroke-miterlimit:4;stroke-dasharray:none;stroke-dashoffset:0;stroke-opacity:1"
         id="rect1008"
         width="179"
         height="49"
         x="20.5"
         y="367.86206" />
    </g>
    <g
       transform="rotate(-90,-308,-398)"
       id="g1124"
       style="display:inline;stroke-width:1.25">
      <path
         inkscape:connector-curvature="0"
         id="path1120"
         d="m -697.49999,394.00004 v -379"
         style="fill:none;fill-rule:evenodd;stroke:#000000;stroke-width:0.999997px;stroke-linecap:butt;stroke-linejoin:miter;stroke-opacity:1" />
      <path
         sodipodi:nodetypes="ccccc"
         inkscape:connector-curvature="0"
         id="path1122"
         d="m -697.5,405 6.5,-15 h -6.5 -6.5 z"
         style="fill:#000000;fill-opacity:1;fill-rule:evenodd;stroke:none;stroke-width:1px;stroke-linecap:butt;stroke-linejoin:miter;stroke-opacity:1" />
    </g>
    <g
       id="g1128"
       transform="matrix(0.05586592,0,0,1.0204082,93.85474,-420.36946)"
       style="fill:#64b5f6;stroke:none;stroke-width:4.18834">
      <rect
         style="display:inline;fill:#64b5f6;fill-opacity:1;fill-rule:evenodd;stroke:none;stroke-width:4.18834;stroke-linecap:butt;stroke-linejoin:round;stroke-miterlimit:4;stroke-dasharray:none;stroke-dashoffset:0;stroke-opacity:1"
         id="rect1126"
         width="179"
         height="49"
         x="20.5"
         y="367.86206" />
    </g>
    <g
       id="g1144"
       transform="matrix(0.05586592,0,0,1.0204082,93.85474,-370.36946)"
       style="fill:#64b5f6;stroke:none;stroke-width:4.18834">
      <rect
         style="display:inline;fill:#64b5f6;fill-opacity:1;fill-rule:evenodd;stroke:none;stroke-width:4.18834;stroke-linecap:butt;stroke-linejoin:round;stroke-miterlimit:4;stroke-dasharray:none;stroke-dashoffset:0;stroke-opacity:1"
         id="rect1142"
         width="179"
         height="49"
         x="20.5"
         y="367.86206" />
    </g>
    <g
       transform="rotate(-90,-283,-373)"
       id="g1919"
       style="display:inline;stroke-width:1.25">
      <path
         inkscape:connector-curvature="0"
         id="path1915"
         d="M -697.49998,794.00003 V 15.00004"
         style="fill:none;fill-rule:evenodd;stroke:#000000;stroke-width:0.999996px;stroke-linecap:butt;stroke-linejoin:miter;stroke-opacity:1" />
      <path
         sodipodi:nodetypes="ccccc"
         inkscape:connector-curvature="0"
         id="path1917"
         d="m -697.5,805 6.5,-15 h -6.5 -6.5 z"
         style="fill:#000000;fill-opacity:1;fill-rule:evenodd;stroke:none;stroke-width:1px;stroke-linecap:butt;stroke-linejoin:miter;stroke-opacity:1" />
    </g>
    <g
       transform="matrix(0,-1,-1,0,1010.0001,-531.00001)"
       id="g5123"
       style="display:inline;stroke-width:1.25">
      <path
         inkscape:connector-curvature="0"
         id="path5119"
         d="m -717.5,293.99999 20,-178.99949"
         style="fill:none;fill-rule:evenodd;stroke:#000000;stroke-width:0.999997px;stroke-linecap:butt;stroke-linejoin:miter;stroke-opacity:1"
         sodipodi:nodetypes="cc" />
      <path
         sodipodi:nodetypes="ccccc"
         inkscape:connector-curvature="0"
         id="path5121"
         d="m -718.09952,305.08282 7.78259,-14.3764 -6.47526,-0.56652 -6.47527,-0.56651 z"
         style="fill:#000000;fill-opacity:1;fill-rule:evenodd;stroke:none;stroke-width:1px;stroke-linecap:butt;stroke-linejoin:miter;stroke-opacity:1" />
    </g>
    <g
       id="g5674"
       transform="matrix(1.0084034,0,0,1.0344828,548.7479,-175.54697)"
       style="stroke-width:0.979087">
      <rect
         style="display:inline;fill:none;fill-opacity:1;fill-rule:evenodd;stroke:none;stroke-width:0.979074;stroke-linecap:butt;stroke-linejoin:round;stroke-miterlimit:4;stroke-dasharray:none;stroke-dashoffset:0;stroke-opacity:1"
         id="rect5668"
         width="158.66666"
         height="29"
         x="-28.508337"
         y="367.86206" />
      <text
         id="text5672"
         y="387.64243"
         x="50.501896"
         style="font-style:normal;font-variant:normal;font-weight:normal;font-stretch:normal;font-size:19.5817px;line-height:125%;font-family:'Source Sans Pro';-inkscape-font-specification:'Source Sans Pro';font-variant-ligatures:normal;font-variant-caps:normal;font-variant-numeric:normal;font-feature-settings:normal;text-align:center;letter-spacing:0px;word-spacing:0px;writing-mode:lr-tb;text-anchor:middle;display:inline;fill:#000000;fill-opacity:1;stroke:none;stroke-width:0.979087px;stroke-linecap:butt;stroke-linejoin:miter;stroke-opacity:1"
         xml:space="preserve"><tspan
           sodipodi:role="line"
           x="50.5019"
           y="387.64243"
           id="tspan5670"
           style="font-size:19.5817px;text-align:center;text-anchor:middle;stroke-width:0.979087px">open websocket</tspan></text>
    </g>
    <g
       transform="matrix(0,-1,-1,0,810,-456.00004)"
       id="g5680"
       style="display:inline;stroke-width:1.25">
      <path
         inkscape:connector-curvature="0"
         id="path5676"
         d="m -697.49999,294.00004 v -179"
         style="fill:none;fill-rule:evenodd;stroke:#000000;stroke-width:0.999994px;stroke-linecap:butt;stroke-linejoin:miter;stroke-opacity:1" />
      <path
         sodipodi:nodetypes="ccccc"
         inkscape:connector-curvature="0"
         id="path5678"
         d="m -697.5,305 6.5,-15 h -6.5 -6.5 z"
         style="fill:#000000;fill-opacity:1;fill-rule:evenodd;stroke:none;stroke-width:1px;stroke-linecap:butt;stroke-linejoin:miter;stroke-opacity:1" />
    </g>
    <g
       id="g5692"
       transform="matrix(1.0084034,0,0,1.0344828,348.7479,-125.54697)"
       style="stroke-width:0.979087">
      <rect
         style="display:inline;fill:none;fill-opacity:1;fill-rule:evenodd;stroke:none;stroke-width:0.979074;stroke-linecap:butt;stroke-linejoin:round;stroke-miterlimit:4;stroke-dasharray:none;stroke-dashoffset:0;stroke-opacity:1"
         id="rect5686"
         width="158.66666"
         height="29"
         x="-28.508337"
         y="367.86206" />
      <text
         id="text5690"
         y="387.64243"
         x="50.501896"
         style="font-style:normal;font-variant:normal;font-weight:normal;font-stretch:normal;font-size:19.5817px;line-height:125%;font-family:'Source Sans Pro';-inkscape-font-specification:'Source Sans Pro';font-variant-ligatures:normal;font-variant-caps:normal;font-variant-numeric:normal;font-feature-settings:normal;text-align:center;letter-spacing:0px;word-spacing:0px;writing-mode:lr-tb;text-anchor:middle;display:inline;fill:#000000;fill-opacity:1;stroke:none;stroke-width:0.979087px;stroke-linecap:butt;stroke-linejoin:miter;stroke-opacity:1"
         xml:space="preserve"><tspan
           sodipodi:role="line"
           x="50.501896"
           y="387.64243"
           id="tspan5688"
           style="font-size:19.5817px;text-align:center;text-anchor:middle;stroke-width:0.979087px">read cells value</tspan></text>
    </g>
    <g
       transform="rotate(-90,-58.00004,-348)"
       id="g5698"
       style="display:inline;stroke-width:1.25">
      <path
         inkscape:connector-curvature="0"
         id="path5694"
         d="m -697.49999,194.00004 v -179"
         style="fill:none;fill-rule:evenodd;stroke:#000000;stroke-width:0.999994px;stroke-linecap:butt;stroke-linejoin:miter;stroke-dasharray:8.00002, 8.00002;stroke-dashoffset:0;stroke-opacity:1" />
      <path
         sodipodi:nodetypes="ccccccc"
         inkscape:connector-curvature="0"
         id="path5696"
         d="m -697.5,205.00004 6.5,-15 h -1.00004 l -5.49996,13.00004 -5.50004,-13.00004 H -704 Z"
         style="fill:#000000;fill-opacity:1;fill-rule:evenodd;stroke:none;stroke-width:1px;stroke-linecap:butt;stroke-linejoin:miter;stroke-opacity:1" />
    </g>
    <g
       id="g5722"
       transform="matrix(1.0084034,0,0,1.0344828,748.7479,-245.54697)"
       style="stroke-width:0.979087">
      <rect
         style="display:inline;fill:none;fill-opacity:1;fill-rule:evenodd;stroke:none;stroke-width:0.979074;stroke-linecap:butt;stroke-linejoin:round;stroke-miterlimit:4;stroke-dasharray:none;stroke-dashoffset:0;stroke-opacity:1"
         id="rect5716"
         width="158.66666"
         height="29"
         x="-28.508337"
         y="367.86206" />
      <text
         id="text5720"
         y="387.64243"
         x="50.501896"
         style="font-style:normal;font-variant:normal;font-weight:normal;font-stretch:normal;font-size:19.5817px;line-height:125%;font-family:'Source Sans Pro';-inkscape-font-specification:'Source Sans Pro';font-variant-ligatures:normal;font-variant-caps:normal;font-variant-numeric:normal;font-feature-settings:normal;text-align:center;letter-spacing:0px;word-spacing:0px;writing-mode:lr-tb;text-anchor:middle;display:inline;fill:#000000;fill-opacity:1;stroke:none;stroke-width:0.979087px;stroke-linecap:butt;stroke-linejoin:miter;stroke-opacity:1"
         xml:space="preserve"><tspan
           sodipodi:role="line"
           x="50.501892"
           y="387.64243"
           id="tspan5718"
           style="font-size:19.5817px;text-align:center;text-anchor:middle;stroke-width:0.979087px">check connection</tspan></text>
    </g>
    <g
       id="g6018"
       transform="matrix(1.0084034,0,0,1.0344828,548.7479,-75.54697)"
       style="stroke-width:0.979087">
      <rect
         style="display:inline;fill:#ffffff;fill-opacity:1;fill-rule:evenodd;stroke:none;stroke-width:0.979074;stroke-linecap:butt;stroke-linejoin:round;stroke-miterlimit:4;stroke-dasharray:none;stroke-dashoffset:0;stroke-opacity:1"
         id="rect6012"
         width="158.66666"
         height="29"
         x="-28.508337"
         y="367.86206" />
      <text
         id="text6016"
         y="387.64243"
         x="50.501896"
         style="font-style:normal;font-variant:normal;font-weight:normal;font-stretch:normal;font-size:19.5817px;line-height:125%;font-family:'Source Sans Pro';-inkscape-font-specification:'Source Sans Pro';font-variant-ligatures:normal;font-variant-caps:normal;font-variant-numeric:normal;font-feature-settings:normal;text-align:center;letter-spacing:0px;word-spacing:0px;writing-mode:lr-tb;text-anchor:middle;display:inline;fill:#000000;fill-opacity:1;stroke:none;stroke-width:0.979087px;stroke-linecap:butt;stroke-linejoin:miter;stroke-opacity:1"
         xml:space="preserve"><tspan
           sodipodi:role="line"
           x="50.501896"
           y="387.64243"
           id="tspan6014"
           style="font-size:19.5817px;text-align:center;text-anchor:middle;stroke-width:0.979087px">send JSON data</tspan></text>
    </g>
    <g
       id="g6032"
       transform="matrix(1.0084034,0,0,1.0344828,748.7479,-25.54697)"
       style="stroke-width:0.979087">
      <rect
         style="display:inline;fill:none;fill-opacity:1;fill-rule:evenodd;stroke:none;stroke-width:0.979074;stroke-linecap:butt;stroke-linejoin:round;stroke-miterlimit:4;stroke-dasharray:none;stroke-dashoffset:0;stroke-opacity:1"
         id="rect6026"
         width="158.66666"
         height="29"
         x="-28.508337"
         y="367.86206" />
      <text
         id="text6030"
         y="387.64243"
         x="50.501896"
         style="font-style:normal;font-variant:normal;font-weight:normal;font-stretch:normal;font-size:19.5817px;line-height:125%;font-family:'Source Sans Pro';-inkscape-font-specification:'Source Sans Pro';font-variant-ligatures:normal;font-variant-caps:normal;font-variant-numeric:normal;font-feature-settings:normal;text-align:center;letter-spacing:0px;word-spacing:0px;writing-mode:lr-tb;text-anchor:middle;display:inline;fill:#000000;fill-opacity:1;stroke:none;stroke-width:0.979087px;stroke-linecap:butt;stroke-linejoin:miter;stroke-opacity:1"
         xml:space="preserve"><tspan
           sodipodi:role="line"
           x="50.501896"
           y="387.64243"
           id="tspan6028"
           style="font-size:19.5817px;text-align:center;text-anchor:middle;stroke-width:0.979087px">show update value</tspan></text>
    </g>
    <g
       transform="rotate(-90,66.99998,-422.99998)"
       id="g1021"
       style="display:inline;stroke-width:1.25">
      <path
         inkscape:connector-curvature="0"
         id="path1017"
         d="m -697.49999,194.00004 v -179"
         style="fill:none;fill-rule:evenodd;stroke:#000000;stroke-width:0.999994px;stroke-linecap:butt;stroke-linejoin:miter;stroke-opacity:1" />
      <path
         sodipodi:nodetypes="ccccc"
         inkscape:connector-curvature="0"
         id="path1019"
         d="m -697.5,205.00004 6.5,-15 h -6.5 -6.5 z"
         style="fill:#000000;fill-opacity:1;fill-rule:evenodd;stroke:none;stroke-width:1px;stroke-linecap:butt;stroke-linejoin:miter;stroke-opacity:1" />
    </g>
    <g
       transform="rotate(-90,191.99998,-497.99998)"
       id="g1027"
       style="display:inline;stroke-width:1.25">
      <path
         inkscape:connector-curvature="0"
         id="path1023"
         d="m -697.49999,194.00004 v -179"
         style="fill:none;fill-rule:evenodd;stroke:#000000;stroke-width:0.999994px;stroke-linecap:butt;stroke-linejoin:miter;stroke-opacity:1" />
      <path
         sodipodi:nodetypes="ccccc"
         inkscape:connector-curvature="0"
         id="path1025"
         d="m -697.5,205.00004 6.5,-15 h -6.5 -6.5 z"
         style="fill:#000000;fill-opacity:1;fill-rule:evenodd;stroke:none;stroke-width:1px;stroke-linecap:butt;stroke-linejoin:miter;stroke-opacity:1" />
    </g>
    <g
       transform="matrix(0,-1,-1,0,610,-156)"
       id="g6354"
       style="display:inline;stroke-width:1.25">
      <path
         inkscape:connector-curvature="0"
         id="path6350"
         d="M -697.49999,274 V 215"
         style="fill:none;fill-rule:evenodd;stroke:#000000;stroke-width:0.999998px;stroke-linecap:butt;stroke-linejoin:miter;stroke-opacity:1" />
      <path
         sodipodi:nodetypes="ccccc"
         inkscape:connector-curvature="0"
         id="path6352"
         d="m -697.5,290 6.5,-15 h -6.5 -6.5 z"
         style="fill:#000000;fill-opacity:1;fill-rule:evenodd;stroke:none;stroke-width:1px;stroke-linecap:butt;stroke-linejoin:miter;stroke-opacity:1" />
      <path
         inkscape:connector-curvature="0"
         id="path6356"
         d="m -647.50001,216 v 89.00001"
         style="fill:none;fill-rule:evenodd;stroke:#000000;stroke-width:0.999996px;stroke-linecap:butt;stroke-linejoin:miter;stroke-opacity:1" />
      <path
         inkscape:connector-curvature="0"
         id="path6358"
         d="m -647,215.50004 h -50"
         style="fill:none;fill-rule:evenodd;stroke:#000000;stroke-width:0.999994px;stroke-linecap:butt;stroke-linejoin:miter;stroke-opacity:1" />
    </g>
    <g
       id="g6366"
       transform="matrix(0.11173184,0,0,0.40816327,297.7095,379.85222)"
       style="fill:#2196f3;stroke:none;stroke-width:4.6827">
      <rect
         style="display:inline;fill:#2196f3;fill-opacity:1;fill-rule:evenodd;stroke:none;stroke-width:4.6827;stroke-linecap:butt;stroke-linejoin:round;stroke-miterlimit:4;stroke-dasharray:none;stroke-dashoffset:0;stroke-opacity:1"
         id="rect6364"
         width="179"
         height="49"
         x="20.5"
         y="367.86206" />
    </g>
    <g
       id="g6374"
       transform="matrix(1.0084034,0,0,1.0344828,148.74794,174.45307)"
       style="stroke-width:0.979087">
      <rect
         style="display:inline;fill:none;fill-opacity:1;fill-rule:evenodd;stroke:none;stroke-width:0.979074;stroke-linecap:butt;stroke-linejoin:round;stroke-miterlimit:4;stroke-dasharray:none;stroke-dashoffset:0;stroke-opacity:1"
         id="rect6368"
         width="158.66666"
         height="29"
         x="-28.508337"
         y="367.86206" />
      <text
         id="text6372"
         y="387.64243"
         x="50.501896"
         style="font-style:normal;font-variant:normal;font-weight:normal;font-stretch:normal;font-size:19.5817px;line-height:125%;font-family:'Source Sans Pro';-inkscape-font-specification:'Source Sans Pro';font-variant-ligatures:normal;font-variant-caps:normal;font-variant-numeric:normal;font-feature-settings:normal;text-align:center;letter-spacing:0px;word-spacing:0px;writing-mode:lr-tb;text-anchor:middle;display:inline;fill:#000000;fill-opacity:1;stroke:none;stroke-width:0.979087px;stroke-linecap:butt;stroke-linejoin:miter;stroke-opacity:1"
         xml:space="preserve"><tspan
           sodipodi:role="line"
           x="50.501896"
           y="387.64243"
           id="tspan6370"
           style="font-size:19.5817px;text-align:center;text-anchor:middle;stroke-width:0.979087px">excel save event</tspan></text>
    </g>
    <g
       transform="rotate(-90,-8,-98)"
       id="g6380"
       style="display:inline;stroke-width:1.25">
      <path
         inkscape:connector-curvature="0"
         id="path6376"
         d="m -697.49999,194.00004 v -179"
         style="fill:none;fill-rule:evenodd;stroke:#000000;stroke-width:0.999994px;stroke-linecap:butt;stroke-linejoin:miter;stroke-opacity:1" />
      <path
         sodipodi:nodetypes="ccccc"
         inkscape:connector-curvature="0"
         id="path6378"
         d="m -697.5,205 6.5,-15 h -6.5 -6.5 z"
         style="fill:#000000;fill-opacity:1;fill-rule:evenodd;stroke:none;stroke-width:1px;stroke-linecap:butt;stroke-linejoin:miter;stroke-opacity:1" />
    </g>
    <g
       id="g6398"
       transform="matrix(1.0084034,0,0,1.0344828,348.7479,224.45307)"
       style="stroke-width:0.979087">
      <rect
         style="display:inline;fill:none;fill-opacity:1;fill-rule:evenodd;stroke:none;stroke-width:0.979074;stroke-linecap:butt;stroke-linejoin:round;stroke-miterlimit:4;stroke-dasharray:none;stroke-dashoffset:0;stroke-opacity:1"
         id="rect6392"
         width="158.66666"
         height="29"
         x="-28.508337"
         y="367.86206" />
      <text
         id="text6396"
         y="387.64243"
         x="50.501896"
         style="font-style:normal;font-variant:normal;font-weight:normal;font-stretch:normal;font-size:19.5817px;line-height:125%;font-family:'Source Sans Pro';-inkscape-font-specification:'Source Sans Pro';font-variant-ligatures:normal;font-variant-caps:normal;font-variant-numeric:normal;font-feature-settings:normal;text-align:center;letter-spacing:0px;word-spacing:0px;writing-mode:lr-tb;text-anchor:middle;display:inline;fill:#000000;fill-opacity:1;stroke:none;stroke-width:0.979087px;stroke-linecap:butt;stroke-linejoin:miter;stroke-opacity:1"
         xml:space="preserve"><tspan
           sodipodi:role="line"
           x="50.501896"
           y="387.64243"
           id="tspan6394"
           style="font-size:19.5817px;text-align:center;text-anchor:middle;stroke-width:0.979087px">read cells value</tspan></text>
    </g>
    <g
       id="g6412"
       transform="matrix(1.0084034,0,0,1.0344828,548.7479,274.45307)"
       style="stroke-width:0.979087">
      <rect
         style="display:inline;fill:none;fill-opacity:1;fill-rule:evenodd;stroke:none;stroke-width:0.979074;stroke-linecap:butt;stroke-linejoin:round;stroke-miterlimit:4;stroke-dasharray:none;stroke-dashoffset:0;stroke-opacity:1"
         id="rect6406"
         width="158.66666"
         height="29"
         x="-28.508337"
         y="367.86206" />
      <text
         id="text6410"
         y="387.64243"
         x="50.501896"
         style="font-style:normal;font-variant:normal;font-weight:normal;font-stretch:normal;font-size:19.5817px;line-height:125%;font-family:'Source Sans Pro';-inkscape-font-specification:'Source Sans Pro';font-variant-ligatures:normal;font-variant-caps:normal;font-variant-numeric:normal;font-feature-settings:normal;text-align:center;letter-spacing:0px;word-spacing:0px;writing-mode:lr-tb;text-anchor:middle;display:inline;fill:#000000;fill-opacity:1;stroke:none;stroke-width:0.979087px;stroke-linecap:butt;stroke-linejoin:miter;stroke-opacity:1"
         xml:space="preserve"><tspan
           sodipodi:role="line"
           x="50.501896"
           y="387.64243"
           id="tspan6408"
           style="font-size:19.5817px;text-align:center;text-anchor:middle;stroke-width:0.979087px">send JSON data</tspan></text>
    </g>
    <g
       id="g6426"
       transform="matrix(1.0084034,0,0,1.0344828,748.7479,324.45307)"
       style="stroke-width:0.979087">
      <rect
         style="display:inline;fill:none;fill-opacity:1;fill-rule:evenodd;stroke:none;stroke-width:0.979074;stroke-linecap:butt;stroke-linejoin:round;stroke-miterlimit:4;stroke-dasharray:none;stroke-dashoffset:0;stroke-opacity:1"
         id="rect6420"
         width="158.66666"
         height="29"
         x="-28.508337"
         y="367.86206" />
      <text
         id="text6424"
         y="387.64243"
         x="50.501896"
         style="font-style:normal;font-variant:normal;font-weight:normal;font-stretch:normal;font-size:19.5817px;line-height:125%;font-family:'Source Sans Pro';-inkscape-font-specification:'Source Sans Pro';font-variant-ligatures:normal;font-variant-caps:normal;font-variant-numeric:normal;font-feature-settings:normal;text-align:center;letter-spacing:0px;word-spacing:0px;writing-mode:lr-tb;text-anchor:middle;display:inline;fill:#000000;fill-opacity:1;stroke:none;stroke-width:0.979087px;stroke-linecap:butt;stroke-linejoin:miter;stroke-opacity:1"
         xml:space="preserve"><tspan
           sodipodi:role="line"
           x="50.501896"
           y="387.64243"
           id="tspan6422"
           style="font-size:19.5817px;text-align:center;text-anchor:middle;stroke-width:0.979087px">show update value</tspan></text>
    </g>
    <g
       transform="rotate(-90,116.99998,-172.99998)"
       id="g997"
       style="display:inline;stroke-width:1.25">
      <path
         inkscape:connector-curvature="0"
         id="path993"
         d="m -697.49999,194.00004 v -179"
         style="fill:none;fill-rule:evenodd;stroke:#000000;stroke-width:0.999994px;stroke-linecap:butt;stroke-linejoin:miter;stroke-opacity:1" />
      <path
         sodipodi:nodetypes="ccccc"
         inkscape:connector-curvature="0"
         id="path995"
         d="m -697.5,205.00004 6.5,-15 h -6.5 -6.5 z"
         style="fill:#000000;fill-opacity:1;fill-rule:evenodd;stroke:none;stroke-width:1px;stroke-linecap:butt;stroke-linejoin:miter;stroke-opacity:1" />
    </g>
    <g
       transform="rotate(-90,241.99998,-247.99998)"
       id="g1003"
       style="display:inline;stroke-width:1.25">
      <path
         inkscape:connector-curvature="0"
         id="path999"
         d="m -697.49999,194.00004 v -179"
         style="fill:none;fill-rule:evenodd;stroke:#000000;stroke-width:0.999994px;stroke-linecap:butt;stroke-linejoin:miter;stroke-opacity:1" />
      <path
         sodipodi:nodetypes="ccccc"
         inkscape:connector-curvature="0"
         id="path1001"
         d="m -697.5,205.00004 6.5,-15 h -6.5 -6.5 z"
         style="fill:#000000;fill-opacity:1;fill-rule:evenodd;stroke:none;stroke-width:1px;stroke-linecap:butt;stroke-linejoin:miter;stroke-opacity:1" />
    </g>
    <g
       transform="rotate(-90,366.99998,-322.99998)"
       id="g1009"
       style="display:inline;stroke-width:1.25">
      <path
         inkscape:connector-curvature="0"
         id="path1005"
         d="m -697.49999,194.00004 v -179"
         style="fill:none;fill-rule:evenodd;stroke:#000000;stroke-width:0.999994px;stroke-linecap:butt;stroke-linejoin:miter;stroke-opacity:1" />
      <path
         sodipodi:nodetypes="ccccc"
         inkscape:connector-curvature="0"
         id="path1007"
         d="m -697.5,205.00004 6.5,-15 h -6.5 -6.5 z"
         style="fill:#000000;fill-opacity:1;fill-rule:evenodd;stroke:none;stroke-width:1px;stroke-linecap:butt;stroke-linejoin:miter;stroke-opacity:1" />
    </g>
    <g
       id="g2806"
       transform="matrix(1.0084034,0,0,1.0344828,548.7479,-245.54697)"
       style="stroke-width:0.979087">
      <text
         id="text2804"
         y="419.02185"
         x="128.72054"
         style="font-style:normal;font-variant:normal;font-weight:normal;font-stretch:normal;font-size:19.5817px;line-height:125%;font-family:'Source Sans Pro';-inkscape-font-specification:'Source Sans Pro';font-variant-ligatures:normal;font-variant-caps:normal;font-variant-numeric:normal;font-feature-settings:normal;text-align:center;letter-spacing:0px;word-spacing:0px;writing-mode:lr-tb;text-anchor:middle;display:inline;fill:#000000;fill-opacity:1;stroke:none;stroke-width:0.979087px;stroke-linecap:butt;stroke-linejoin:miter;stroke-opacity:1"
         xml:space="preserve"><tspan
           sodipodi:role="line"
           x="128.72054"
           y="419.02185"
           id="tspan2802"
           style="font-size:19.5817px;text-align:center;text-anchor:middle;stroke-width:0.979087px">5s</tspan></text>
    </g>
    <g
       id="g6348"
       transform="matrix(1.0084034,0,0,1.0344828,348.7479,74.45303)"
       style="stroke-width:0.979087">
      <rect
         style="display:inline;fill:none;fill-opacity:1;fill-rule:evenodd;stroke:none;stroke-width:0.979074;stroke-linecap:butt;stroke-linejoin:round;stroke-miterlimit:4;stroke-dasharray:none;stroke-dashoffset:0;stroke-opacity:1"
         id="rect6342"
         width="158.66666"
         height="29"
         x="-28.508337"
         y="367.86206" />
      <text
         id="text6346"
         y="387.64243"
         x="50.501896"
         style="font-style:normal;font-variant:normal;font-weight:normal;font-stretch:normal;font-size:19.5817px;line-height:125%;font-family:'Source Sans Pro';-inkscape-font-specification:'Source Sans Pro';font-variant-ligatures:normal;font-variant-caps:normal;font-variant-numeric:normal;font-feature-settings:normal;text-align:center;letter-spacing:0px;word-spacing:0px;writing-mode:lr-tb;text-anchor:middle;display:inline;fill:#000000;fill-opacity:1;stroke:none;stroke-width:0.979087px;stroke-linecap:butt;stroke-linejoin:miter;stroke-opacity:1"
         xml:space="preserve"><tspan
           sodipodi:role="line"
           x="50.5019"
           y="387.64243"
           id="tspan6344"
           style="font-size:19.5817px;text-align:center;text-anchor:middle;stroke-width:0.979087px">wait for save event</tspan></text>
    </g>
  </g>
  <g
     inkscape:groupmode="layer"
     id="layer4"
     inkscape:label="Title"
     transform="translate(0,-675)"
     sodipodi:insensitive="true" />
  <g
     inkscape:groupmode="layer"
     id="layer5"
     inkscape:label="Pallete"
     sodipodi:insensitive="true">
    <circle
       style="opacity:1;fill:#ffffff;stroke:none;stroke-width:5;stroke-opacity:0.247059"
       id="path1598"
       cx="50"
       cy="-100"
       r="50" />
    <circle
       r="50"
       cy="-100"
       cx="200"
       id="circle2447"
       style="opacity:1;fill:#303f9f;stroke:none;stroke-width:5;stroke-opacity:0.247059" />
    <circle
       style="opacity:1;fill:#00796b;stroke:none;stroke-width:5;stroke-opacity:0.247059"
       id="circle2449"
       cx="350"
       cy="-100"
       r="50" />
  </g>
</svg>
